{
  "version": "15.0.7",
  "vulnerabilities": [
    {
      "id": ":SKIP:",
      "category": "sast",
      "name": "Potential time of check time of use vulnerability (open/fopen)",
      "description": "Usage of the `open` family of functions may hint at a potential Time Of Check Time Of Use\n(TOCTOU)\nvulnerability. An attacker may be able to modify the file being specified by the `open`\nfunction prior to the `open` function being called.\n\nPrior to calling `open`, use `lstat` to open the file and confirm the attributes\nare correct. Then use `open` to get a file descriptor to this file. Call `fstat` on the\n`open` file descriptor to confirm that `st_dev` and `st_ino` are equal between the two.\nIf they are, it is safe to read and operate on the file's contents.\n\nFor more information please see:\nhttps://wiki.sei.cmu.edu/confluence/display/c/FIO45-C.+Avoid+TOCTOU+race+conditions+while+accessing+files\n",
      "cve": "semgrep_id:flawfinder.fopen-1.open-1:10:10",
      "severity": "Info",
      "scanner": {
        "id": "semgrep",
        "name": "Semgrep"
      },
      "location": {
        "file": "subdir/utils.cpp",
        "start_line": 10
      },
      "identifiers": [
        {
          "type": "semgrep_id",
          "name": "flawfinder.fopen-1.open-1",
          "value": "flawfinder.fopen-1.open-1"
        },
        {
          "type": "cwe",
          "name": "CWE-362",
          "value": "362",
          "url": "https://cwe.mitre.org/data/definitions/362.html"
        },
        {
          "type": "owasp",
          "name": "A01:2021 - Broken Access Control",
          "value": "A01:2021"
        },
        {
          "type": "owasp",
          "name": "A5:2017 - Broken Access Control",
          "value": "A5:2017"
        },
        {
          "type": "flawfinder_func_name",
          "name": "Flawfinder - fopen",
          "value": "fopen"
        },
        {
          "type": "flawfinder_func_name",
          "name": "Flawfinder - open",
          "value": "open"
        }
      ],
      "tracking": {
        "type": "source",
        "items": [
          {
            "file": "subdir/utils.cpp",
            "line_start": 10,
            "line_end": 10,
            "signatures": [
              {
                "algorithm": "scope_offset",
                "value": "subdir/utils.cpp|doStuff()[0]:2"
              }
            ]
          }
        ]
      }
    }
  ],
  "dependency_files": [],
  "scan": {
    "analyzer": {
      "id": "semgrep",
      "name": "Semgrep",
      "url": "https://gitlab.com/gitlab-org/security-products/analyzers/semgrep",
      "vendor": {
        "name": "GitLab"
      },
      "version": ":SKIP:"
    },
    "scanner": {
      "id": "semgrep",
      "name": "Semgrep",
      "url": "https://github.com/returntocorp/semgrep",
      "vendor": {
        "name": "GitLab"
      },
      "version": ":SKIP:"
    },
    "type": "sast",
    "start_time": ":SKIP:",
    "end_time": ":SKIP:",
    "status": "success"
  }
}
